…
Or input a data frame with a column named `text`.

``` r
## data frame with rstats tweets
rt <- rtweet::search_tweets("rstats", n = 2000, verbose = FALSE)

## get text features
textfeatures(rt)
#> # A tibble: 1,996 x 128
#>    user_id n_urls n_hashtags n_mentions n_chars n_commas n_digits n_exclaims n_extraspaces n_lowers
#>    <chr>    <dbl>      <dbl>      <dbl>   <dbl>    <dbl>    <dbl>      <dbl>         <dbl>    <dbl>
#>  1 335499… -0.495     -1.00       2.46    0.758    1.14    -0.565      1.74         0.223     0.839
#>  2 270458… -0.495      1.85      -0.636  -1.80    -0.492   -0.565     -0.441        1.69     -1.61 
#>  3 270458… -0.495      1.59      -0.636  -0.548   -0.492   -0.565     -0.441        1.20     -0.403
#>  4 270458…  0.721      1.43       2.03   -0.897   -0.492   -0.565     -0.441        1.31     -0.814
#>  5 270458…  0.721      1.37      -0.636  -0.644   -0.492   -0.565     -0.441        1.08     -0.612
#>  6 270458…  0.721      1.37       0.696  -0.373   -0.492   -0.565     -0.441        1.08     -0.469
#>  7 270458…  0.721      1.43      -0.636  -0.292   -0.492    0.571     -0.441        1.08     -0.436
#>  8 781871… -0.495     -0.563     -0.636   1.11    -0.492    1.24      -0.441       -0.0347    1.10 
#>  9 812424…  0.721      1.37      -0.636  -0.644   -0.492   -0.565     -0.441        1.08     -0.612
#> 10 812424…  0.721      1.43      -0.636  -0.192   -0.492   -0.565     -0.441        1.08     -0.193
#> # ... with 1,986 more rows, and 118 more variables: n_lowersp <dbl>, n_periods <dbl>,
#> #   n_words <dbl>, n_caps <dbl>, n_nonasciis <dbl>, n_puncts <dbl>, n_capsp <dbl>,
#> #   n_charsperword <dbl>, sent_afinn <dbl>, sent_bing <dbl>, n_polite <dbl>, n_first_person <dbl>,
#> #   n_first_personp <dbl>, n_second_person <dbl>, n_second_personp <dbl>, n_third_person <dbl>,
#> #   n_tobe <dbl>, n_prepositions <dbl>, w1 <dbl>, w2 <dbl>, w3 <dbl>, w4 <dbl>, w5 <dbl>, w6 <dbl>,
#> #   w7 <dbl>, w8 <dbl>, w9 <dbl>, w10 <dbl>, w11 <dbl>, w12 <dbl>, w13 <dbl>, w14 <dbl>, w15 <dbl>,
#> #   w16 <dbl>, w17 <dbl>, w18 <dbl>, w19 <dbl>, w20 <dbl>, w21 <dbl>, w22 <dbl>, w23 <dbl>,
#> #   w24 <dbl>, w25 <dbl>, w26 <dbl>, w27 <dbl>, w28 <dbl>, w29 <dbl>, w30 <dbl>, w31 <dbl>,
#> #   w32 <dbl>, w33 <dbl>, w34 <dbl>, w35 <dbl>, w36 <dbl>, w37 <dbl>, w38 <dbl>, w39 <dbl>,
…
<p style="align:center">

<img src='tools/readme/readme.png' max-width="600px" />

</p>

## Fast version

If you’re looking for something faster try setting `sentiment = FALSE`
and `word2vec = 0`.

``` r
## get non-substantive text features
textfeatures(rt, sentiment = FALSE, word2vec_dims = 0)
#> # A tibble: 1,996 x 26
#>    user_id n_urls n_hashtags n_mentions n_chars n_commas n_digits n_exclaims n_extraspaces n_lowers
#>    <chr>    <dbl>      <dbl>      <dbl>   <dbl>    <dbl>    <dbl>      <dbl>         <dbl>    <dbl>
#>  1 335499… -0.495     -1.00       2.46    0.758    1.14    -0.565      1.74         0.223     0.839
#>  2 270458… -0.495      1.85      -0.636  -1.80    -0.492   -0.565     -0.441        1.69     -1.61 
#>  3 270458… -0.495      1.59      -0.636  -0.548   -0.492   -0.565     -0.441        1.20     -0.403
#>  4 270458…  0.721      1.43       2.03   -0.897   -0.492   -0.565     -0.441        1.31     -0.814
#>  5 270458…  0.721      1.37      -0.636  -0.644   -0.492   -0.565     -0.441        1.08     -0.612
#>  6 270458…  0.721      1.37       0.696  -0.373   -0.492   -0.565     -0.441        1.08     -0.469
#>  7 270458…  0.721      1.43      -0.636  -0.292   -0.492    0.571     -0.441        1.08     -0.436
#>  8 781871… -0.495     -0.563     -0.636   1.11    -0.492    1.24      -0.441       -0.0347    1.10 
#>  9 812424…  0.721      1.37      -0.636  -0.644   -0.492   -0.565     -0.441        1.08     -0.612
#> 10 812424…  0.721      1.43      -0.636  -0.192   -0.492   -0.565     -0.441        1.08     -0.193
#> # ... with 1,986 more rows, and 16 more variables: n_lowersp <dbl>, n_periods <dbl>, n_words <dbl>,
#> #   n_caps <dbl>, n_nonasciis <dbl>, n_puncts <dbl>, n_capsp <dbl>, n_charsperword <dbl>,
#> #   n_polite <dbl>, n_first_person <dbl>, n_first_personp <dbl>, n_second_person <dbl>,
#> #   n_second_personp <dbl>, n_third_person <dbl>, n_tobe <dbl>, n_prepositions <dbl>
```
