Extracts Features from Text â€¢ textfeatures
…
Or input a data frame with a column named text.

## data frame with rstats tweets
rt <- rtweet::search_tweets("rstats", n = 2000, verbose = FALSE)

## get text features
tf <- textfeatures(rt, verbose = FALSE)

## preview data
tf
#> # A tibble: 2,000 x 134
#>    n_urls n_uq_urls n_hashtags n_uq_hashtags n_mentions n_uq_mentions n_chars n_uq_chars n_commas
#>     <dbl>     <dbl>      <dbl>         <dbl>      <dbl>         <dbl>   <dbl>      <dbl>    <dbl>
#>  1  0.838     0.336      1.34          1.34      -0.564        -0.564  0.770      0.749    -0.605
#>  2 -0.338     0.336     -0.636        -0.634     -0.564        -0.564 -0.815     -0.958    -0.605
#>  3 -2.35     -2.92      -1.06         -1.06       3.70          3.70   0.498      0.903    -0.605
#>  4 -0.338     0.336     -0.636        -0.634     -0.564        -0.564 -0.561     -0.675    -0.605
#>  5  0.838     0.336      0.385         0.386      1.09          1.09  -0.773     -0.813    -0.605
#>  6 -0.338     0.336     -1.06         -1.06       1.09          1.09   0.0764    -0.420     2.35 
#>  7 -0.338     0.336     -0.636        -0.634      2.05          2.05  -0.195     -0.0763   -0.605
#>  8 -2.35     -2.92      -1.06         -1.06       1.09          1.09  -0.181      0.130     1.74 
#>  9 -0.338     0.336     -1.06         -1.06       3.27          3.27   0.406      0.827     1.74 
#> 10 -2.35     -2.92      -0.636        -0.634     -0.564        -0.564 -0.283     -0.300    -0.605
#> # â€¦ with 1,990 more rows, and 125 more variables: n_digits <dbl>, n_exclaims <dbl>,
#> #   n_extraspaces <dbl>, n_lowers <dbl>, n_lowersp <dbl>, n_periods <dbl>, n_words <dbl>,
#> #   n_uq_words <dbl>, n_caps <dbl>, n_nonasciis <dbl>, n_puncts <dbl>, n_capsp <dbl>,
#> #   n_charsperword <dbl>, sent_afinn <dbl>, sent_bing <dbl>, sent_syuzhet <dbl>, sent_vader <dbl>,
#> #   n_polite <dbl>, n_first_person <dbl>, n_first_personp <dbl>, n_second_person <dbl>,
#> #   n_second_personp <dbl>, n_third_person <dbl>, n_tobe <dbl>, n_prepositions <dbl>, w1 <dbl>,
#> #   w2 <dbl>, w3 <dbl>, w4 <dbl>, w5 <dbl>, w6 <dbl>, w7 <dbl>, w8 <dbl>, w9 <dbl>, w10 <dbl>,
#> #   w11 <dbl>, w12 <dbl>, w13 <dbl>, w14 <dbl>, w15 <dbl>, w16 <dbl>, w17 <dbl>, w18 <dbl>,
#> #   w19 <dbl>, w20 <dbl>, w21 <dbl>, w22 <dbl>, w23 <dbl>, w24 <dbl>, w25 <dbl>, w26 <dbl>,
…
Fast version

If youâ€™re looking for something faster try setting sentiment = FALSE and word2vec = 0.

## get non-substantive text features
textfeatures(rt, sentiment = FALSE, word_dims = 0, verbose = FALSE)
#> # A tibble: 2,000 x 29
#>    n_urls n_uq_urls n_hashtags n_uq_hashtags n_mentions n_uq_mentions n_chars n_uq_chars n_commas
#>     <dbl>     <dbl>      <dbl>         <dbl>      <dbl>         <dbl>   <dbl>      <dbl>    <dbl>
#>  1  0.838     0.336      1.34          1.34      -0.564        -0.564  0.770      0.749    -0.605
#>  2 -0.338     0.336     -0.636        -0.634     -0.564        -0.564 -0.815     -0.958    -0.605
#>  3 -2.35     -2.92      -1.06         -1.06       3.70          3.70   0.498      0.903    -0.605
#>  4 -0.338     0.336     -0.636        -0.634     -0.564        -0.564 -0.561     -0.675    -0.605
#>  5  0.838     0.336      0.385         0.386      1.09          1.09  -0.773     -0.813    -0.605
#>  6 -0.338     0.336     -1.06         -1.06       1.09          1.09   0.0764    -0.420     2.35 
#>  7 -0.338     0.336     -0.636        -0.634      2.05          2.05  -0.195     -0.0763   -0.605
#>  8 -2.35     -2.92      -1.06         -1.06       1.09          1.09  -0.181      0.130     1.74 
#>  9 -0.338     0.336     -1.06         -1.06       3.27          3.27   0.406      0.827     1.74 
#> 10 -2.35     -2.92      -0.636        -0.634     -0.564        -0.564 -0.283     -0.300    -0.605
#> # â€¦ with 1,990 more rows, and 20 more variables: n_digits <dbl>, n_exclaims <dbl>,
#> #   n_extraspaces <dbl>, n_lowers <dbl>, n_lowersp <dbl>, n_periods <dbl>, n_words <dbl>,
#> #   n_uq_words <dbl>, n_caps <dbl>, n_nonasciis <dbl>, n_puncts <dbl>, n_capsp <dbl>,
#> #   n_charsperword <dbl>, n_first_person <dbl>, n_first_personp <dbl>, n_second_person <dbl>,
#> #   n_second_personp <dbl>, n_third_person <dbl>, n_tobe <dbl>, n_prepositions <dbl>
…
